%!PS-Adobe-3.0
%%Creator: PCBNEW
%%CreationDate: Tue Feb 26 14:32:59 2019
%%Title: /home/michael/git/buck_strip_300mm/pcb/ledstripe./gerber/ledstripe_frame-NPTH-drl_map.ps
%%Pages: 1
%%PageOrder: Ascend
%%BoundingBox: 0 0 596 842
%%DocumentMedia: A4 595 842 0 () ()
%%Orientation: Landscape
%%EndComments
%%BeginProlog
/line { newpath moveto lineto stroke } bind def
/cir0 { newpath 0 360 arc stroke } bind def
/cir1 { newpath 0 360 arc gsave fill grestore stroke } bind def
/cir2 { newpath 0 360 arc gsave fill grestore stroke } bind def
/arc0 { newpath arc stroke } bind def
/arc1 { newpath 4 index 4 index moveto arc closepath gsave fill
    grestore stroke } bind def
/arc2 { newpath 4 index 4 index moveto arc closepath gsave fill
    grestore stroke } bind def
/poly0 { stroke } bind def
/poly1 { closepath gsave fill grestore stroke } bind def
/poly2 { closepath gsave fill grestore stroke } bind def
/rect0 { rectstroke } bind def
/rect1 { rectfill } bind def
/rect2 { rectfill } bind def
/linemode0 { 0 setlinecap 0 setlinejoin 0 setlinewidth } bind def
/linemode1 { 1 setlinecap 1 setlinejoin } bind def
/dashedline { [200] 100 setdash } bind def
/solidline { [] 0 setdash } bind def
/phantomshow { moveto
    /KicadFont findfont 0.000001 scalefont setfont
    show } bind def
/textshow { gsave
    findfont exch scalefont setfont concat 1 scale 0 0 moveto show
    } bind def
/reencodefont {
  findfont dup length dict begin
  { 1 index /FID ne
    { def }
    { pop pop } ifelse
  } forall
  /Encoding ISOLatin1Encoding def
  currentdict
  end } bind def
/KicadFont /Helvetica reencodefont definefont pop
/KicadFont-Bold /Helvetica-Bold reencodefont definefont pop
/KicadFont-Oblique /Helvetica-Oblique reencodefont definefont pop
/KicadFont-BoldOblique /Helvetica-BoldOblique reencodefont definefont pop
%%EndProlog
%%Page: 1 1
%%BeginPageSetup
gsave
0.0072 0.0072 scale
linemode1
82680 0 translate 90 rotate
41.9801 setlinewidth
%%EndPageSetup
0 0 0 setrgbcolor
33.0552 setlinewidth
newpath
109039 71098.1 moveto
75984.3 71098.1 lineto
stroke
0 0 0 setrgbcolor
newpath
109039 68453.7 moveto
75984.3 68453.7 lineto
stroke
0 0 0 setrgbcolor
newpath
109039 65809.2 moveto
75984.3 65809.2 lineto
stroke
0 0 0 setrgbcolor
newpath
109039 63164.8 moveto
75984.3 63164.8 lineto
stroke
0 0 0 setrgbcolor
newpath
109039 60520.4 moveto
75984.3 60520.4 lineto
stroke
0 0 0 setrgbcolor
newpath
109039 57876 moveto
75984.3 57876 lineto
stroke
0 0 0 setrgbcolor
newpath
109039 55231.6 moveto
75984.3 55231.6 lineto
stroke
0 0 0 setrgbcolor
newpath
109039 52587.2 moveto
75984.3 52587.2 lineto
stroke
0 0 0 setrgbcolor
newpath
109039 49942.8 moveto
75984.3 49942.8 lineto
stroke
0 0 0 setrgbcolor
newpath
109039 47298.3 moveto
75984.3 47298.3 lineto
stroke
0 0 0 setrgbcolor
newpath
109039 44653.9 moveto
75984.3 44653.9 lineto
stroke
0 0 0 setrgbcolor
newpath
7890.54 44653.9 moveto
40945.7 44653.9 lineto
stroke
0 0 0 setrgbcolor
newpath
7890.54 47298.3 moveto
40945.7 47298.3 lineto
stroke
0 0 0 setrgbcolor
newpath
7890.54 49942.8 moveto
40945.7 49942.8 lineto
stroke
0 0 0 setrgbcolor
newpath
7890.54 52587.2 moveto
40945.7 52587.2 lineto
stroke
0 0 0 setrgbcolor
newpath
7890.54 55231.6 moveto
40945.7 55231.6 lineto
stroke
0 0 0 setrgbcolor
newpath
7890.54 57876 moveto
40945.7 57876 lineto
stroke
0 0 0 setrgbcolor
newpath
7890.54 60520.4 moveto
40945.7 60520.4 lineto
stroke
0 0 0 setrgbcolor
newpath
7890.54 63164.8 moveto
40945.7 63164.8 lineto
stroke
0 0 0 setrgbcolor
newpath
7890.54 42009.5 moveto
7890.54 73742.5 lineto
stroke
0 0 0 setrgbcolor
newpath
8882.2 42009.5 moveto
7890.54 42009.5 lineto
stroke
0 0 0 setrgbcolor
newpath
8882.2 73742.5 moveto
7890.54 73742.5 lineto
stroke
0 0 0 setrgbcolor
newpath
109039 73742.5 moveto
109039 42009.5 lineto
stroke
0 0 0 setrgbcolor
newpath
108048 42009.5 moveto
109039 42009.5 lineto
stroke
0 0 0 setrgbcolor
newpath
108048 73742.5 moveto
109039 73742.5 lineto
stroke
0 0 0 setrgbcolor
newpath
108048 73742.5 moveto
108048 42009.5 lineto
stroke
0 0 0 setrgbcolor
newpath
8882.2 73742.5 moveto
8882.2 42009.5 lineto
stroke
0 0 0 setrgbcolor
newpath
8882.2 42009.5 moveto
41937.4 42009.5 lineto
stroke
0 0 0 setrgbcolor
newpath
8882.2 44653.9 moveto
41937.4 44653.9 lineto
stroke
0 0 0 setrgbcolor
newpath
8882.2 47298.3 moveto
41937.4 47298.3 lineto
stroke
0 0 0 setrgbcolor
newpath
8882.2 49942.8 moveto
41937.4 49942.8 lineto
stroke
0 0 0 setrgbcolor
newpath
8882.2 52587.2 moveto
41937.4 52587.2 lineto
stroke
0 0 0 setrgbcolor
newpath
8882.2 55231.6 moveto
41937.4 55231.6 lineto
stroke
0 0 0 setrgbcolor
newpath
8882.2 57876 moveto
41937.4 57876 lineto
stroke
0 0 0 setrgbcolor
newpath
8882.2 60520.4 moveto
41937.4 60520.4 lineto
stroke
0 0 0 setrgbcolor
newpath
8882.2 63164.8 moveto
41937.4 63164.8 lineto
stroke
0 0 0 setrgbcolor
newpath
8882.2 65809.2 moveto
41937.4 65809.2 lineto
stroke
0 0 0 setrgbcolor
newpath
7890.54 68453.7 moveto
41937.4 68453.7 lineto
stroke
0 0 0 setrgbcolor
newpath
8882.2 44653.9 moveto
41937.4 44653.9 lineto
stroke
0 0 0 setrgbcolor
newpath
8882.2 47298.3 moveto
41937.4 47298.3 lineto
stroke
0 0 0 setrgbcolor
newpath
8882.2 49942.8 moveto
41937.4 49942.8 lineto
stroke
0 0 0 setrgbcolor
newpath
8882.2 52587.2 moveto
41937.4 52587.2 lineto
stroke
0 0 0 setrgbcolor
newpath
8882.2 55231.6 moveto
41937.4 55231.6 lineto
stroke
0 0 0 setrgbcolor
newpath
8882.2 57876 moveto
41937.4 57876 lineto
stroke
0 0 0 setrgbcolor
newpath
8882.2 60520.4 moveto
41937.4 60520.4 lineto
stroke
0 0 0 setrgbcolor
newpath
8882.2 63164.8 moveto
41937.4 63164.8 lineto
stroke
0 0 0 setrgbcolor
newpath
7890.54 65809.2 moveto
40945.7 65809.2 lineto
stroke
0 0 0 setrgbcolor
newpath
8882.2 68453.7 moveto
41937.4 68453.7 lineto
stroke
0 0 0 setrgbcolor
newpath
7890.54 71098.1 moveto
41937.4 71098.1 lineto
stroke
0 0 0 setrgbcolor
newpath
74992.6 42009.5 moveto
108048 42009.5 lineto
stroke
0 0 0 setrgbcolor
newpath
74992.6 44653.9 moveto
108048 44653.9 lineto
stroke
0 0 0 setrgbcolor
newpath
74992.6 47298.3 moveto
108048 47298.3 lineto
stroke
0 0 0 setrgbcolor
newpath
74992.6 49942.8 moveto
108048 49942.8 lineto
stroke
0 0 0 setrgbcolor
newpath
74992.6 52587.2 moveto
108048 52587.2 lineto
stroke
0 0 0 setrgbcolor
newpath
74992.6 55231.6 moveto
108048 55231.6 lineto
stroke
0 0 0 setrgbcolor
newpath
74992.6 57876 moveto
108048 57876 lineto
stroke
0 0 0 setrgbcolor
newpath
74992.6 60520.4 moveto
108048 60520.4 lineto
stroke
0 0 0 setrgbcolor
newpath
74992.6 63164.8 moveto
108048 63164.8 lineto
stroke
0 0 0 setrgbcolor
newpath
74992.6 65809.2 moveto
108048 65809.2 lineto
stroke
0 0 0 setrgbcolor
newpath
74992.6 68453.7 moveto
108048 68453.7 lineto
stroke
0 0 0 setrgbcolor
newpath
41937.4 42009.5 moveto
74992.6 42009.5 lineto
stroke
0 0 0 setrgbcolor
newpath
41937.4 44653.9 moveto
74992.6 44653.9 lineto
stroke
0 0 0 setrgbcolor
newpath
41937.4 47298.3 moveto
74992.6 47298.3 lineto
stroke
0 0 0 setrgbcolor
newpath
41937.4 49942.8 moveto
74992.6 49942.8 lineto
stroke
0 0 0 setrgbcolor
newpath
41937.4 52587.2 moveto
74992.6 52587.2 lineto
stroke
0 0 0 setrgbcolor
newpath
41937.4 55231.6 moveto
74992.6 55231.6 lineto
stroke
0 0 0 setrgbcolor
newpath
41937.4 57876 moveto
74992.6 57876 lineto
stroke
0 0 0 setrgbcolor
newpath
41937.4 60520.4 moveto
74992.6 60520.4 lineto
stroke
0 0 0 setrgbcolor
newpath
41937.4 63164.8 moveto
74992.6 63164.8 lineto
stroke
0 0 0 setrgbcolor
newpath
41937.4 65809.2 moveto
74992.6 65809.2 lineto
stroke
0 0 0 setrgbcolor
newpath
41937.4 68453.7 moveto
74992.6 68453.7 lineto
stroke
0 0 0 setrgbcolor
newpath
74992.6 44653.9 moveto
108048 44653.9 lineto
stroke
0 0 0 setrgbcolor
newpath
74992.6 47298.3 moveto
108048 47298.3 lineto
stroke
0 0 0 setrgbcolor
newpath
74992.6 49942.8 moveto
108048 49942.8 lineto
stroke
0 0 0 setrgbcolor
newpath
74992.6 52587.2 moveto
108048 52587.2 lineto
stroke
0 0 0 setrgbcolor
newpath
74992.6 55231.6 moveto
108048 55231.6 lineto
stroke
0 0 0 setrgbcolor
newpath
74992.6 57876 moveto
108048 57876 lineto
stroke
0 0 0 setrgbcolor
newpath
74992.6 60520.4 moveto
108048 60520.4 lineto
stroke
0 0 0 setrgbcolor
newpath
74992.6 63164.8 moveto
108048 63164.8 lineto
stroke
0 0 0 setrgbcolor
newpath
74992.6 65809.2 moveto
108048 65809.2 lineto
stroke
0 0 0 setrgbcolor
newpath
74992.6 68453.7 moveto
108048 68453.7 lineto
stroke
0 0 0 setrgbcolor
newpath
74992.6 71098.1 moveto
108048 71098.1 lineto
stroke
0 0 0 setrgbcolor
newpath
41937.4 44653.9 moveto
74992.6 44653.9 lineto
stroke
0 0 0 setrgbcolor
newpath
41937.4 47298.3 moveto
74992.6 47298.3 lineto
stroke
0 0 0 setrgbcolor
newpath
41937.4 49942.8 moveto
74992.6 49942.8 lineto
stroke
0 0 0 setrgbcolor
newpath
41937.4 52587.2 moveto
74992.6 52587.2 lineto
stroke
0 0 0 setrgbcolor
newpath
41937.4 55231.6 moveto
74992.6 55231.6 lineto
stroke
0 0 0 setrgbcolor
newpath
41937.4 57876 moveto
74992.6 57876 lineto
stroke
0 0 0 setrgbcolor
newpath
41937.4 60520.4 moveto
74992.6 60520.4 lineto
stroke
0 0 0 setrgbcolor
newpath
41937.4 63164.8 moveto
74992.6 63164.8 lineto
stroke
0 0 0 setrgbcolor
newpath
41937.4 65809.2 moveto
74992.6 65809.2 lineto
stroke
0 0 0 setrgbcolor
newpath
41937.4 68453.7 moveto
74992.6 68453.7 lineto
stroke
0 0 0 setrgbcolor
newpath
41937.4 71098.1 moveto
74992.6 71098.1 lineto
stroke
0 0 0 setrgbcolor
newpath
74992.6 71098.1 moveto
108048 71098.1 lineto
stroke
0 0 0 setrgbcolor
newpath
41937.4 71098.1 moveto
74992.6 71098.1 lineto
stroke
0 0 0 setrgbcolor
newpath
74992.6 73742.5 moveto
108048 73742.5 lineto
stroke
0 0 0 setrgbcolor
newpath
41937.4 73742.5 moveto
74992.6 73742.5 lineto
stroke
0 0 0 setrgbcolor
newpath
8882.2 71098.1 moveto
41937.4 71098.1 lineto
stroke
0 0 0 setrgbcolor
newpath
8882.2 73742.5 moveto
41937.4 73742.5 lineto
stroke
78.7401 setlinewidth
118.11 setlinewidth
0 0 0 setrgbcolor
0 0 0 setrgbcolor
newpath
9001.69 40159.5 moveto
9001.69 41340.6 lineto
9282.9 41340.6 lineto
9451.63 41284.3 lineto
9564.12 41171.8 lineto
9620.36 41059.3 lineto
9676.6 40834.4 lineto
9676.6 40665.6 lineto
9620.36 40440.7 lineto
9564.12 40328.2 lineto
9451.63 40215.7 lineto
9282.9 40159.5 lineto
9001.69 40159.5 lineto
stroke
newpath
10182.8 40159.5 moveto
10182.8 40946.9 lineto
stroke
newpath
10182.8 40721.9 moveto
10239 40834.4 lineto
10295.3 40890.6 lineto
10407.8 40946.9 lineto
10520.2 40946.9 lineto
stroke
newpath
10913.9 40159.5 moveto
10913.9 40946.9 lineto
stroke
newpath
10913.9 41340.6 moveto
10857.7 41284.3 lineto
10913.9 41228.1 lineto
10970.2 41284.3 lineto
10913.9 41340.6 lineto
10913.9 41228.1 lineto
stroke
newpath
11645.1 40159.5 moveto
11532.6 40215.7 lineto
11476.4 40328.2 lineto
11476.4 41340.6 lineto
stroke
newpath
12263.8 40159.5 moveto
12151.3 40215.7 lineto
12095.1 40328.2 lineto
12095.1 41340.6 lineto
stroke
newpath
13613.6 40159.5 moveto
13613.6 41340.6 lineto
14007.3 40496.9 lineto
14401 41340.6 lineto
14401 40159.5 lineto
stroke
newpath
15469.6 40159.5 moveto
15469.6 40778.1 lineto
15413.4 40890.6 lineto
15300.9 40946.9 lineto
15075.9 40946.9 lineto
14963.4 40890.6 lineto
stroke
newpath
15469.6 40215.7 moveto
15357.1 40159.5 lineto
15075.9 40159.5 lineto
14963.4 40215.7 lineto
14907.2 40328.2 lineto
14907.2 40440.7 lineto
14963.4 40553.2 lineto
15075.9 40609.4 lineto
15357.1 40609.4 lineto
15469.6 40665.6 lineto
stroke
newpath
16032.1 40946.9 moveto
16032.1 39765.8 lineto
stroke
newpath
16032.1 40890.6 moveto
16144.5 40946.9 lineto
16369.5 40946.9 lineto
16482 40890.6 lineto
16538.2 40834.4 lineto
16594.5 40721.9 lineto
16594.5 40384.4 lineto
16538.2 40271.9 lineto
16482 40215.7 lineto
16369.5 40159.5 lineto
16144.5 40159.5 lineto
16032.1 40215.7 lineto
stroke
newpath
17100.7 40271.9 moveto
17156.9 40215.7 lineto
17100.7 40159.5 lineto
17044.4 40215.7 lineto
17100.7 40271.9 lineto
17100.7 40159.5 lineto
stroke
newpath
17100.7 40890.6 moveto
17156.9 40834.4 lineto
17100.7 40778.1 lineto
17044.4 40834.4 lineto
17100.7 40890.6 lineto
17100.7 40778.1 lineto
stroke
showpage
grestore
%%EOF
