EESchema Schematic File Version 4
LIBS:ledstripe.-cache
EELAYER 26 0
EELAYER END
$Descr A4 11693 8268
encoding utf-8
Sheet 1 1
Title ""
Date ""
Rev ""
Comp ""
Comment1 ""
Comment2 ""
Comment3 ""
Comment4 ""
$EndDescr
$Comp
L ledstripe.-rescue:PT4211-crpowtech U1
U 1 1 5C7506CD
P 4200 2250
F 0 "U1" H 4400 2550 50  0000 L CNN
F 1 "PT4211" H 4050 2250 50  0000 L CNN
F 2 "Package_TO_SOT_SMD:SOT-23-5" H 4200 2250 50  0001 C CNN
F 3 "" H 4200 2250 50  0001 C CNN
	1    4200 2250
	1    0    0    -1  
$EndComp
$Comp
L Device:L L1
U 1 1 5C750C8A
P 5000 2300
F 0 "L1" V 4950 2300 50  0000 C CNN
F 1 "47u" V 5100 2300 50  0000 C CNN
F 2 "ledstrip:SM4532" H 5000 2300 50  0001 C CNN
F 3 "~" H 5000 2300 50  0001 C CNN
	1    5000 2300
	0    1    1    0   
$EndComp
$Comp
L Device:D_Schottky D8
U 1 1 5C751D30
P 4750 2050
F 0 "D8" V 4704 2129 50  0000 L CNN
F 1 "SS14" V 4795 2129 50  0000 L CNN
F 2 "Diode_SMD:D_SOD-123" H 4750 2050 50  0001 C CNN
F 3 "~" H 4750 2050 50  0001 C CNN
	1    4750 2050
	0    1    1    0   
$EndComp
$Comp
L Device:LED D2
U 1 1 5C7527BA
P 5850 1900
F 0 "D2" H 5843 1645 50  0000 C CNN
F 1 "LED" H 5843 1736 50  0000 C CNN
F 2 "LED_SMD:LED_PLCC_2835" H 5850 1900 50  0001 C CNN
F 3 "~" H 5850 1900 50  0001 C CNN
	1    5850 1900
	-1   0    0    1   
$EndComp
$Comp
L Device:LED D3
U 1 1 5C755599
P 6250 1900
F 0 "D3" H 6243 1645 50  0000 C CNN
F 1 "LED" H 6243 1736 50  0000 C CNN
F 2 "LED_SMD:LED_PLCC_2835" H 6250 1900 50  0001 C CNN
F 3 "~" H 6250 1900 50  0001 C CNN
	1    6250 1900
	-1   0    0    1   
$EndComp
$Comp
L Device:LED D4
U 1 1 5C7555A3
P 6650 1900
F 0 "D4" H 6643 1645 50  0000 C CNN
F 1 "LED" H 6643 1736 50  0000 C CNN
F 2 "LED_SMD:LED_PLCC_2835" H 6650 1900 50  0001 C CNN
F 3 "~" H 6650 1900 50  0001 C CNN
	1    6650 1900
	-1   0    0    1   
$EndComp
$Comp
L Device:R R4
U 1 1 5C7555AD
P 6450 2100
F 0 "R4" H 6520 2146 50  0000 L CNN
F 1 "0" H 6520 2055 50  0000 L CNN
F 2 "Resistor_SMD:R_1206_3216Metric" V 6380 2100 50  0001 C CNN
F 3 "~" H 6450 2100 50  0001 C CNN
	1    6450 2100
	1    0    0    -1  
$EndComp
$Comp
L Device:R R3
U 1 1 5C7564B0
P 6050 2100
F 0 "R3" H 6120 2146 50  0000 L CNN
F 1 "0" H 6120 2055 50  0000 L CNN
F 2 "Resistor_SMD:R_1206_3216Metric" V 5980 2100 50  0001 C CNN
F 3 "~" H 6050 2100 50  0001 C CNN
	1    6050 2100
	1    0    0    -1  
$EndComp
$Comp
L Device:R R5
U 1 1 5C756795
P 6850 2100
F 0 "R5" H 6920 2146 50  0000 L CNN
F 1 "0" H 6920 2055 50  0000 L CNN
F 2 "Resistor_SMD:R_1206_3216Metric" V 6780 2100 50  0001 C CNN
F 3 "~" H 6850 2100 50  0001 C CNN
	1    6850 2100
	1    0    0    -1  
$EndComp
$Comp
L Device:LED D5
U 1 1 5C75752A
P 7050 1900
F 0 "D5" H 7043 1645 50  0000 C CNN
F 1 "LED" H 7043 1736 50  0000 C CNN
F 2 "LED_SMD:LED_PLCC_2835" H 7050 1900 50  0001 C CNN
F 3 "~" H 7050 1900 50  0001 C CNN
	1    7050 1900
	-1   0    0    1   
$EndComp
$Comp
L Device:LED D6
U 1 1 5C757534
P 7450 1900
F 0 "D6" H 7443 1645 50  0000 C CNN
F 1 "LED" H 7443 1736 50  0000 C CNN
F 2 "LED_SMD:LED_PLCC_2835" H 7450 1900 50  0001 C CNN
F 3 "~" H 7450 1900 50  0001 C CNN
	1    7450 1900
	-1   0    0    1   
$EndComp
$Comp
L Device:LED D7
U 1 1 5C75753E
P 7850 1900
F 0 "D7" H 7843 1645 50  0000 C CNN
F 1 "LED" H 7843 1736 50  0000 C CNN
F 2 "LED_SMD:LED_PLCC_2835" H 7850 1900 50  0001 C CNN
F 3 "~" H 7850 1900 50  0001 C CNN
	1    7850 1900
	-1   0    0    1   
$EndComp
$Comp
L Device:R R7
U 1 1 5C757548
P 7650 2100
F 0 "R7" H 7720 2146 50  0000 L CNN
F 1 "0" H 7720 2055 50  0000 L CNN
F 2 "Resistor_SMD:R_1206_3216Metric" V 7580 2100 50  0001 C CNN
F 3 "~" H 7650 2100 50  0001 C CNN
	1    7650 2100
	1    0    0    -1  
$EndComp
$Comp
L Device:R R6
U 1 1 5C757552
P 7250 2100
F 0 "R6" H 7320 2146 50  0000 L CNN
F 1 "0" H 7320 2055 50  0000 L CNN
F 2 "Resistor_SMD:R_1206_3216Metric" V 7180 2100 50  0001 C CNN
F 3 "~" H 7250 2100 50  0001 C CNN
	1    7250 2100
	1    0    0    -1  
$EndComp
Wire Wire Line
	4750 1900 5250 1900
Wire Wire Line
	6000 1900 6050 1900
Wire Wire Line
	6050 1950 6050 1900
Connection ~ 6050 1900
Wire Wire Line
	6050 1900 6100 1900
Wire Wire Line
	6400 1900 6450 1900
Wire Wire Line
	6450 1950 6450 1900
Connection ~ 6450 1900
Wire Wire Line
	6450 1900 6500 1900
Wire Wire Line
	4650 2250 4750 2250
Wire Wire Line
	4750 2200 4750 2250
Wire Wire Line
	4850 2300 4750 2300
Wire Wire Line
	4750 2300 4750 2250
Connection ~ 4750 2250
Wire Wire Line
	5150 2300 5250 2300
Wire Wire Line
	6050 2300 6050 2250
Wire Wire Line
	6050 2300 6450 2300
Wire Wire Line
	6450 2300 6450 2250
Connection ~ 6050 2300
Wire Wire Line
	6450 2300 6850 2300
Wire Wire Line
	6850 2300 6850 2250
Connection ~ 6450 2300
Wire Wire Line
	6850 2300 7250 2300
Wire Wire Line
	7250 2300 7250 2250
Connection ~ 6850 2300
Wire Wire Line
	7250 2300 7650 2300
Wire Wire Line
	7650 2300 7650 2250
Connection ~ 7250 2300
Wire Wire Line
	7650 2300 8050 2300
Wire Wire Line
	8050 2300 8050 1900
Wire Wire Line
	8050 1900 8000 1900
Connection ~ 7650 2300
Wire Wire Line
	7650 1950 7650 1900
Wire Wire Line
	7650 1900 7700 1900
Wire Wire Line
	7600 1900 7650 1900
Connection ~ 7650 1900
Wire Wire Line
	7250 1950 7250 1900
Wire Wire Line
	7250 1900 7300 1900
Wire Wire Line
	7200 1900 7250 1900
Connection ~ 7250 1900
Wire Wire Line
	6850 1950 6850 1900
Wire Wire Line
	6850 1900 6900 1900
Wire Wire Line
	6800 1900 6850 1900
Connection ~ 6850 1900
$Comp
L Device:R R1
U 1 1 5C7644BA
P 3950 1800
F 0 "R1" V 3743 1800 50  0000 C CNN
F 1 "4.7" V 3834 1800 50  0000 C CNN
F 2 "Resistor_SMD:R_1206_3216Metric" V 3880 1800 50  0001 C CNN
F 3 "~" H 3950 1800 50  0001 C CNN
	1    3950 1800
	0    1    1    0   
$EndComp
$Comp
L Device:Thermistor_NTC TH1
U 1 1 5C766191
P 3400 2550
F 0 "TH1" H 3498 2596 50  0000 L CNN
F 1 "330k/4700" H 3498 2505 50  0000 L CNN
F 2 "Resistor_SMD:R_0603_1608Metric" H 3400 2600 50  0001 C CNN
F 3 "~" H 3400 2600 50  0001 C CNN
	1    3400 2550
	1    0    0    -1  
$EndComp
Wire Wire Line
	5250 1950 5250 1900
Connection ~ 5250 1900
Wire Wire Line
	5250 1900 5300 1900
Wire Wire Line
	5250 2250 5250 2300
Connection ~ 5250 2300
Wire Wire Line
	4100 1800 4200 1800
Wire Wire Line
	4200 1800 4200 1900
Wire Wire Line
	4200 1800 5250 1800
Wire Wire Line
	5250 1800 5250 1900
Connection ~ 4200 1800
$Comp
L Device:C C3
U 1 1 5C76A2D9
P 3000 2550
F 0 "C3" H 3115 2596 50  0000 L CNN
F 1 "100n" H 3115 2505 50  0000 L CNN
F 2 "Resistor_SMD:R_0603_1608Metric" H 3038 2400 50  0001 C CNN
F 3 "~" H 3000 2550 50  0001 C CNN
	1    3000 2550
	1    0    0    -1  
$EndComp
$Comp
L Device:C C2
U 1 1 5C76B427
P 2600 2550
F 0 "C2" H 2715 2596 50  0000 L CNN
F 1 "10u" H 2715 2505 50  0000 L CNN
F 2 "Capacitor_SMD:C_1206_3216Metric" H 2638 2400 50  0001 C CNN
F 3 "~" H 2600 2550 50  0001 C CNN
	1    2600 2550
	1    0    0    -1  
$EndComp
Wire Wire Line
	2600 2700 3000 2700
Wire Wire Line
	3000 2700 3400 2700
Connection ~ 3000 2700
Wire Wire Line
	3000 2400 3400 2400
Wire Wire Line
	3400 2400 3750 2400
Connection ~ 3400 2400
Wire Wire Line
	4200 2700 4200 2600
Wire Wire Line
	3800 1800 3600 1800
Wire Wire Line
	3750 2100 3600 2100
Wire Wire Line
	3600 2100 3600 1800
Connection ~ 3600 1800
Wire Wire Line
	3600 1800 2600 1800
$Comp
L Connector_Generic:Conn_01x02 J1
U 1 1 5C77875E
P 1400 2300
F 0 "J1" H 1318 2517 50  0000 C CNN
F 1 "Conn_01x02" H 1318 2426 50  0000 C CNN
F 2 "ledstrip:pwrcon" H 1400 2300 50  0001 C CNN
F 3 "~" H 1400 2300 50  0001 C CNN
	1    1400 2300
	-1   0    0    -1  
$EndComp
Wire Wire Line
	1600 2400 1600 2700
Wire Wire Line
	1600 2700 2600 2700
Connection ~ 2600 2700
Wire Wire Line
	1600 2300 1850 2300
Wire Wire Line
	1850 2300 1850 1800
Wire Wire Line
	1850 1800 2600 1800
Connection ~ 2600 1800
$Comp
L power:VCC #PWR01
U 1 1 5C77DC83
P 2600 1700
F 0 "#PWR01" H 2600 1550 50  0001 C CNN
F 1 "VCC" H 2617 1873 50  0000 C CNN
F 2 "" H 2600 1700 50  0001 C CNN
F 3 "" H 2600 1700 50  0001 C CNN
	1    2600 1700
	1    0    0    -1  
$EndComp
$Comp
L power:GND #PWR02
U 1 1 5C77E45F
P 2600 2800
F 0 "#PWR02" H 2600 2550 50  0001 C CNN
F 1 "GND" H 2605 2627 50  0000 C CNN
F 2 "" H 2600 2800 50  0001 C CNN
F 3 "" H 2600 2800 50  0001 C CNN
	1    2600 2800
	1    0    0    -1  
$EndComp
Wire Wire Line
	2600 2800 2600 2700
Wire Wire Line
	2600 1800 2600 1700
Wire Wire Line
	2600 1800 2600 2400
$Comp
L Device:LED D1
U 1 1 5C7521E1
P 5450 1900
F 0 "D1" H 5443 1645 50  0000 C CNN
F 1 "LED" H 5443 1736 50  0000 C CNN
F 2 "LED_SMD:LED_PLCC_2835" H 5450 1900 50  0001 C CNN
F 3 "~" H 5450 1900 50  0001 C CNN
	1    5450 1900
	-1   0    0    1   
$EndComp
$Comp
L Connector_Generic:Conn_01x02 J2
U 1 1 5C757E5B
P 1150 3250
F 0 "J2" H 1068 3467 50  0000 C CNN
F 1 "Conn_01x02" H 1068 3376 50  0000 C CNN
F 2 "ledstrip:pwrcon" H 1150 3250 50  0001 C CNN
F 3 "~" H 1150 3250 50  0001 C CNN
	1    1150 3250
	-1   0    0    1   
$EndComp
$Comp
L Device:C C4
U 1 1 5C75C2BF
P 1750 3200
F 0 "C4" H 1865 3246 50  0000 L CNN
F 1 "10u" H 1865 3155 50  0000 L CNN
F 2 "Capacitor_SMD:C_1206_3216Metric" H 1788 3050 50  0001 C CNN
F 3 "~" H 1750 3200 50  0001 C CNN
	1    1750 3200
	1    0    0    -1  
$EndComp
$Comp
L power:GND #PWR0101
U 1 1 5C75C37D
P 1750 3400
F 0 "#PWR0101" H 1750 3150 50  0001 C CNN
F 1 "GND" H 1755 3227 50  0000 C CNN
F 2 "" H 1750 3400 50  0001 C CNN
F 3 "" H 1750 3400 50  0001 C CNN
	1    1750 3400
	1    0    0    -1  
$EndComp
$Comp
L power:VCC #PWR0102
U 1 1 5C75C400
P 1750 3000
F 0 "#PWR0102" H 1750 2850 50  0001 C CNN
F 1 "VCC" H 1767 3173 50  0000 C CNN
F 2 "" H 1750 3000 50  0001 C CNN
F 3 "" H 1750 3000 50  0001 C CNN
	1    1750 3000
	1    0    0    -1  
$EndComp
Wire Wire Line
	1350 3150 1350 3000
Wire Wire Line
	1350 3000 1750 3000
Wire Wire Line
	1750 3000 1750 3050
Connection ~ 1750 3000
Wire Wire Line
	1350 3250 1550 3250
Wire Wire Line
	1550 3250 1550 3350
Wire Wire Line
	1550 3350 1750 3350
Wire Wire Line
	1750 3350 1750 3400
Connection ~ 1750 3350
Wire Wire Line
	5250 2300 6050 2300
Wire Wire Line
	5600 1900 5700 1900
$Comp
L Device:R R2
U 1 1 5C7642F1
P 3800 2700
F 0 "R2" H 3870 2746 50  0000 L CNN
F 1 "0" H 3870 2655 50  0000 L CNN
F 2 "Resistor_SMD:R_0603_1608Metric" V 3730 2700 50  0001 C CNN
F 3 "~" H 3800 2700 50  0001 C CNN
	1    3800 2700
	0    1    1    0   
$EndComp
Wire Wire Line
	3400 2700 3650 2700
Connection ~ 3400 2700
Wire Wire Line
	3950 2700 4200 2700
Text Label 4000 2700 0    50   ~ 0
GNDIC
$EndSCHEMATC
